…
```r
# Info on productplots package
# browseURL("http://j.mp/2GMXZCZ")  # Page on CRAN
# browseURL("http://j.mp/36ImMTy")  # Ref manual on CRAN
# browseURL("http://j.mp/37Wxvv7")  # Preprint PDF

# Save dataset to tibble named "df" (for "dataframe")
df <- happy %>%
  as_tibble() %>%
  print()
```
<blockquote>

```
# A tibble: 51,020 × 10
      id happy          year   age sex    marital       degree         finrela       health    wtssall
   <dbl> <fct>         <dbl> <dbl> <fct>  <fct>         <fct>          <fct>         <fct>       <dbl>
 1     1 not too happy  1972    23 female never married bachelor       average       good        0.445
 2     2 not too happy  1972    70 male   married       lt high school above average fair        0.889
 3     3 pretty happy   1972    48 female married       high school    average       excellent   0.889
 4     4 not too happy  1972    27 female married       bachelor       average       good        0.889
 5     5 pretty happy   1972    61 female married       high school    above average good        0.889
 6     6 pretty happy   1972    26 male   never married high school    above average good        0.445
 7     7 not too happy  1972    28 male   divorced      high school    above average excellent   0.445
 8     8 not too happy  1972    27 male   never married bachelor       average       good        0.445
 9     9 pretty happy   1972    21 female never married high school    average       excellent   0.445
10    10 pretty happy   1972    30 female married       high school    below average fair        0.889
# ℹ 51,010 more rows
# ℹ Use `print(n = ...)` to see more rows
```
</blockquote>

```r
# Delete id and wtssall, which is a weighting variable that
# doesn't change results appreciably
df %<>%
  select(happy:health) %>%
  print()
```
<blockquote>

```
# A tibble: 51,020 × 8
   happy          year   age sex    marital       degree         finrela       health   
   <fct>         <dbl> <dbl> <fct>  <fct>         <fct>          <fct>         <fct>    
 1 not too happy  1972    23 female never married bachelor       average       good     
 2 not too happy  1972    70 male   married       lt high school above average fair     
 3 pretty happy   1972    48 female married       high school    average       excellent
 4 not too happy  1972    27 female married       bachelor       average       good     
 5 pretty happy   1972    61 female married       high school    above average good     
 6 pretty happy   1972    26 male   never married high school    above average good     
 7 not too happy  1972    28 male   divorced      high school    above average excellent
 8 not too happy  1972    27 male   never married bachelor       average       good     
 9 pretty happy   1972    21 female never married high school    average       excellent
10 pretty happy   1972    30 female married       high school    below average fair     
# ℹ 51,010 more rows
# ℹ Use `print(n = ...)` to see more rows
```
…
```
# A tibble: 46,303 × 9
   happy          year   age sex    marital       degree         finrela       health    married
   <fct>         <dbl> <dbl> <fct>  <fct>         <fct>          <fct>         <fct>     <fct>  
 1 not too happy  1972    23 female never married bachelor       average       good      no     
 2 not too happy  1972    70 male   married       lt high school above average fair      yes    
 3 pretty happy   1972    48 female married       high school    average       excellent yes    
 4 not too happy  1972    27 female married       bachelor       average       good      yes    
 5 pretty happy   1972    61 female married       high school    above average good      yes    
 6 pretty happy   1972    26 male   never married high school    above average good      no     
 7 not too happy  1972    28 male   divorced      high school    above average excellent no     
 8 not too happy  1972    27 male   never married bachelor       average       good      no     
 9 pretty happy   1972    21 female never married high school    average       excellent no     
10 pretty happy   1972    30 female married       high school    below average fair      yes    
# ℹ 46,293 more rows
# ℹ Use `print(n = ...)` to see more rows
```
…
```
# A tibble: 46,303 × 10
   happy          year   age sex    marital       degree         finrela       health    married college
   <fct>         <dbl> <dbl> <fct>  <fct>         <fct>          <fct>         <fct>     <fct>   <chr>  
 1 not too happy  1972    23 female never married bachelor       average       good      no      yes    
 2 not too happy  1972    70 male   married       lt high school above average fair      yes     no     
 3 pretty happy   1972    48 female married       high school    average       excellent yes     no     
 4 not too happy  1972    27 female married       bachelor       average       good      yes     yes    
 5 pretty happy   1972    61 female married       high school    above average good      yes     no     
 6 pretty happy   1972    26 male   never married high school    above average good      no      no     
 7 not too happy  1972    28 male   divorced      high school    above average excellent no      no     
 8 not too happy  1972    27 male   never married bachelor       average       good      no      yes    
 9 pretty happy   1972    21 female never married high school    average       excellent no      no     
10 pretty happy   1972    30 female married       high school    below average fair      yes     no     
# ℹ 46,293 more rows
# ℹ Use `print(n = ...)` to see more rows
```
…
